20

2 2
1
r 0 0 e
2 1

2 2
1
r 0 0 w
2 2

2 2
1
r 0 0 s
4 1

2 2
1
r 0 0 n
4 3

5 5
2
f 0 0 s
f 4 4 s
100 50

5 5
2
f 0 0 s
f 4 4 s
100 50

5 5
2
f 0 0 s
r 4 4 s
100 50

3 3
2
h 1 2 e
r 2 1 e
100 50

3 3
2
h 1 2 s
r 2 1 e
9 3

3 3
2
t 1 2 s
r 2 2 e
9 3

2 2
4
t 0 0 s
t 1 0 s
t 1 1 s
t 0 1 s
1 1

2 2
4
t 0 0 s
r 1 0 s
r 1 1 s
t 0 1 s
3 1

2 2
4
r 0 0 s
t 1 0 s
t 1 1 s
r 0 1 s
3 1

2 2
4
f 0 0 s
r 1 0 s
r 1 1 s
f 0 1 s
4 1

7 7
15
t 0 0 s
r 5 4 e
f 2 2 e
f 3 3 e
f 1 1 e
f 5 5 e
f 4 4 w
t 6 6 n
r 3 2 n
h 4 5 e
h 1 2 s
h 4 3 s
h 2 4 e
h 6 1 n
t 6 3 w
15 2

7 7
15
t 0 0 s
r 5 4 e
f 2 2 e
f 3 3 e
f 1 1 e
f 5 5 e
f 4 4 w
t 6 6 n
r 3 2 n
h 4 5 e
h 1 2 s
h 4 3 s
h 2 4 e
h 6 1 n
t 6 3 w
15 3

7 7
15
t 0 0 s
r 5 4 e
f 2 2 e
f 3 3 e
f 1 1 e
f 5 5 e
f 4 4 w
t 6 6 n
r 3 2 n
h 4 5 e
h 1 2 s
h 4 3 s
h 2 4 e
h 6 1 n
t 6 3 w
15 5

8 8
15
t 0 0 s
r 5 4 e
f 2 2 e
f 3 3 e
f 1 1 e
f 5 5 e
f 4 4 w
t 6 6 n
r 3 2 n
h 4 5 e
h 1 2 s
h 4 3 s
h 2 4 e
h 6 1 n
t 6 3 w
150 50

10 10
16
t 0 0 s
r 5 4 e
f 2 2 e
f 3 3 e
f 1 1 e
f 5 5 e
f 4 4 w
t 6 6 n
r 3 2 n
h 4 5 e
h 1 2 s
h 4 3 s
h 2 4 e
h 6 1 n
t 6 3 w
r 9 9 e
14 2

10 10
18
t 0 0 s
r 5 4 e
f 2 2 e
f 3 3 e
f 1 1 e
f 5 5 e
f 4 4 w
t 6 6 n
r 3 2 n
h 4 5 e
h 1 2 s
h 4 3 s
h 2 4 e
h 6 1 n
t 6 3 w
r 9 9 e
r 8 8 n
r 9 7 e
14 2
